<?xml version="1.0" encoding="iso-8859-1"?>
<!-- Generator: Adobe Illustrator 19.0.0, SVG Export Plug-In . SVG Version: 6.00 Build 0)  -->
<svg xmlns="http://www.w3.org/2000/svg" xmlns:xlink="http://www.w3.org/1999/xlink" version="1.1" id="Capa_1" x="0px" y="0px" viewBox="0 0 503.327 503.327" style="enable-background:new 0 0 503.327 503.327;" xml:space="preserve" width="512" height="512">
<g>
	<polygon style="fill:#B1DCEE;" points="346.952,453.882 251.667,178.624 251.661,178.624 156.376,453.882 86.084,453.882    86.084,495.827 417.243,495.827 417.243,453.882  "/>
	<polyline style="fill:#5A9DEE;" points="227.317,453.882 417.243,453.882 417.243,495.827 86.084,495.827 86.084,453.882    206.139,453.882  "/>
	<circle style="fill:#5A9DEE;" cx="251.661" cy="120.951" r="57.673"/>
	<g>
		<path style="fill:#214245;" d="M352.292,446.382L261.918,185.31c31.08-4.935,54.916-31.912,54.916-64.358    c0-35.936-29.236-65.172-65.173-65.172c-35.936,0-65.172,29.236-65.172,65.172c0,32.448,23.839,59.427,54.921,64.359    l-90.374,261.071H78.584v56.945h346.159v-56.945H352.292z M204.405,338.063l47.259-136.52l58.255,168.286H193.408l5.804-16.767    h70.239v-15H204.405z M201.489,120.951c0-27.665,22.507-50.172,50.172-50.172c27.666,0,50.173,22.507,50.173,50.172    c0,27.665-22.507,50.173-50.173,50.173C223.996,171.124,201.489,148.616,201.489,120.951z M409.743,488.327H93.584v-26.945h68.132    h44.423v-15h-39.231l21.308-61.553h126.895l21.308,61.553H227.317v15h114.294h68.131V488.327z"/>
		<path style="fill:#214245;" d="M168.143,204.469l10.606-10.607c-40.203-40.202-40.203-105.617,0-145.82l-10.606-10.607    C122.092,83.486,122.092,158.417,168.143,204.469z"/>
		<path style="fill:#214245;" d="M335.178,204.469c22.275-22.275,34.543-51.936,34.543-83.518s-12.268-61.242-34.543-83.518    l-10.606,10.607c19.442,19.441,30.149,45.335,30.149,72.91s-10.707,53.469-30.149,72.91L335.178,204.469z"/>
		<path style="fill:#214245;" d="M141.317,231.295c-60.844-60.844-60.844-159.844-0.001-220.687L130.71,0.001    c-66.692,66.692-66.692,175.209,0,241.901L141.317,231.295z"/>
		<path style="fill:#214245;" d="M362.005,231.295l10.606,10.607c66.692-66.693,66.692-175.21,0-241.902l-10.606,10.608    C422.849,71.451,422.849,170.451,362.005,231.295z"/>
	</g>
</g>



<line fill="none" stroke="#5A9DEE" stroke-width="40" stroke-linejoin="round" stroke-miterlimit="50" x1="25" y1="25" x2="430" y2="430"></line>











</svg>
